# Blender v241 OBJ File: mage2.blend
# www.blender3d.org
mtllib mage2.mtl
o Sphere.002_Sphere.004
v 0.554133 1.194724 0.126173
v 0.633101 1.137351 0.186500
v 0.523970 1.101891 0.186500
v 0.456521 1.194724 0.186500
v 0.523970 1.287557 0.186500
v 0.633101 1.252098 0.186500
v 0.584295 1.101891 0.284112
v 0.475164 1.137351 0.284112
v 0.475164 1.252098 0.284112
v 0.584295 1.287557 0.284112
v 0.651744 1.194724 0.284112
v 0.554133 1.194724 0.344439
v 0.600549 1.161001 0.142471
v 0.536403 1.140158 0.142471
v 0.582820 1.106434 0.177930
v 0.600549 1.228448 0.142471
v 0.646966 1.194724 0.177931
v 0.496758 1.194724 0.142472
v 0.479028 1.140158 0.177931
v 0.536403 1.249290 0.142471
v 0.479028 1.249290 0.177931
v 0.582820 1.283014 0.177930
v 0.657924 1.228448 0.235306
v 0.657924 1.161001 0.235306
v 0.618279 1.106434 0.235306
v 0.554133 1.085591 0.235306
v 0.489986 1.106434 0.235306
v 0.450341 1.161001 0.235306
v 0.450341 1.228448 0.235306
v 0.489986 1.283015 0.235306
v 0.554133 1.303857 0.235306
v 0.618279 1.283015 0.235306
v 0.629237 1.140158 0.292681
v 0.525445 1.106434 0.292681
v 0.461299 1.194724 0.292681
v 0.525445 1.283014 0.292681
v 0.629237 1.249290 0.292681
v 0.611507 1.194724 0.328140
v 0.571862 1.140158 0.328140
v 0.507716 1.161001 0.328140
v 0.507716 1.228448 0.328140
v 0.571862 1.249290 0.328140
vt 0.719403 0.788246 0.0
vt 0.719403 0.747549 0.0
vt 0.740530 0.774680 0.0
vt 0.719403 0.828942 0.0
vt 0.701476 0.808594 0.0
vt 0.537045 0.774680 0.0
vt 0.560678 0.774680 0.0
vt 0.548861 0.808594 0.0
vt 0.560678 0.842508 0.0
vt 0.537045 0.842508 0.0
vt 0.740530 0.842508 0.0
vt 0.719403 0.869639 0.0
vt 0.683548 0.828942 0.0
vt 0.683548 0.788246 0.0
vt 0.683548 0.747548 0.0
vt 0.770275 0.706851 0.0
vt 0.581805 0.747548 0.0
vt 0.581805 0.788246 0.0
vt 0.581805 0.828942 0.0
vt 0.581805 0.869639 0.0
vt 0.668532 0.910336 0.0
vt 0.683548 0.869639 0.0
vt 0.662420 0.774680 0.0
vt 0.566789 0.706851 0.0
vt 0.617661 0.747549 0.0
vt 0.599733 0.808594 0.0
vt 0.617661 0.869639 0.0
vt 0.662420 0.842508 0.0
vt 0.650604 0.808594 0.0
vt 0.638788 0.774680 0.0
vt 0.617661 0.788246 0.0
vt 0.617661 0.828942 0.0
vt 0.638788 0.842508 0.0
vt 0.650604 0.874480 0.0
vt 0.632676 0.808594 0.0
vt 0.668532 0.808594 0.0
vt 0.599733 0.844449 0.0
vt 0.599733 0.772738 0.0
vt 0.650604 0.742707 0.0
vt 0.701476 0.844449 0.0
vt 0.752346 0.874480 0.0
vt 0.566789 0.808594 0.0
vt 0.548861 0.742707 0.0
vt 0.701476 0.772738 0.0
vt 0.548861 0.874480 0.0
vt 0.752346 0.742707 0.0
vt 0.734419 0.808594 0.0
vt 0.530934 0.808594 0.0
vn 0.425306 -0.309000 -0.850642
vn 0.262856 -0.808985 -0.525712
vn -0.162450 -0.499985 -0.850642
vn 0.425306 0.309000 -0.850642
vn 0.850642 0.000000 -0.525712
vn -0.688162 -0.499985 -0.525712
vn -0.525712 0.000000 -0.850642
vn -0.688162 0.499985 -0.525712
vn -0.162450 0.499985 -0.850642
vn 0.262856 0.808985 -0.525712
vn 0.951048 0.309000 0.000000
vn 0.951048 -0.309000 0.000000
vn 0.587756 -0.809015 0.000000
vn 0.000000 -1.000000 0.000000
vn -0.587756 -0.809015 0.000000
vn -0.951048 -0.309000 0.000000
vn -0.951048 0.309000 0.000000
vn -0.587756 0.809015 0.000000
vn 0.000000 1.000000 0.000000
vn 0.587756 0.809015 0.000000
vn 0.688162 -0.499985 0.525712
vn -0.262856 -0.808985 0.525712
vn -0.850642 0.000000 0.525712
vn -0.262856 0.808985 0.525712
vn 0.688162 0.499985 0.525712
vn 0.525712 0.000000 0.850642
vn 0.162450 -0.499985 0.850642
vn -0.425306 -0.309000 0.850642
vn -0.425306 0.309000 0.850642
vn 0.162450 0.499985 0.850642
vn 0.276376 0.850642 0.447188
vn 0.000000 0.000000 1.000000
vn 0.894406 0.000000 0.447188
vn -0.723594 0.525712 0.447188
vn -0.723594 -0.525712 0.447188
vn 0.276376 -0.850642 0.447188
vn 0.723594 0.525712 -0.447188
vn -0.276376 0.850642 -0.447188
vn -0.894406 0.000000 -0.447188
vn -0.276376 -0.850642 -0.447188
vn 0.723594 -0.525712 -0.447188
vn 0.000000 0.000000 -1.000000
usemtl Material.006_mage2.png
s 1
f 13/1/1 15/2/2 14/3/3
f 13/1/1 16/4/4 17/5/5
f 14/6/3 19/7/6 18/8/7
f 18/8/7 21/9/8 20/10/9
f 20/11/9 22/12/10 16/4/4
f 17/5/5 23/13/11 24/14/12
f 15/2/2 25/15/13 26/16/14
f 19/7/6 27/17/15 28/18/16
f 21/9/8 29/19/17 30/20/18
f 22/12/10 31/21/19 32/22/20
f 24/14/12 33/23/21 25/15/13
f 26/24/14 34/25/22 27/17/15
f 28/18/16 35/26/23 29/19/17
f 30/20/18 36/27/24 31/21/19
f 32/22/20 37/28/25 23/13/11
f 33/23/21 38/29/26 39/30/27
f 34/25/22 39/30/27 40/31/28
f 35/26/23 40/31/28 41/32/29
f 36/27/24 41/32/29 42/33/30
f 37/28/25 42/33/30 38/29/26
f 10/34/31 42/33/30 37/28/25
f 12/35/32 38/29/26 42/33/30
f 11/36/33 37/28/25 38/29/26
f 9/37/34 41/32/29 36/27/24
f 12/35/32 42/33/30 41/32/29
f 10/34/31 36/27/24 42/33/30
f 8/38/35 40/31/28 35/26/23
f 12/35/32 41/32/29 40/31/28
f 9/37/34 35/26/23 41/32/29
f 7/39/36 39/30/27 34/25/22
f 12/35/32 40/31/28 39/30/27
f 8/38/35 34/25/22 40/31/28
f 11/36/33 38/29/26 33/23/21
f 12/35/32 39/30/27 38/29/26
f 7/39/36 33/23/21 39/30/27
f 6/40/37 32/22/20 23/13/11
f 11/36/33 23/13/11 37/28/25
f 10/34/31 37/28/25 32/22/20
f 5/41/38 30/20/18 31/21/19
f 10/34/31 31/21/19 36/27/24
f 9/37/34 36/27/24 30/20/18
f 4/42/39 28/18/16 29/19/17
f 9/37/34 29/19/17 35/26/23
f 8/38/35 35/26/23 28/18/16
f 3/43/40 26/24/14 27/17/15
f 8/38/35 27/17/15 34/25/22
f 7/39/36 34/25/22 26/24/14
f 2/44/41 24/14/12 25/15/13
f 7/39/36 25/15/13 33/23/21
f 11/36/33 33/23/21 24/14/12
f 5/41/38 31/21/19 22/12/10
f 10/34/31 32/22/20 31/21/19
f 6/40/37 22/12/10 32/22/20
f 4/42/39 29/19/17 21/9/8
f 9/37/34 30/20/18 29/19/17
f 5/45/38 21/9/8 30/20/18
f 3/43/40 27/17/15 19/7/6
f 8/38/35 28/18/16 27/17/15
f 4/42/39 19/7/6 28/18/16
f 2/44/41 25/15/13 15/2/2
f 7/39/36 26/16/14 25/15/13
f 3/46/40 15/2/2 26/16/14
f 6/40/37 23/13/11 17/5/5
f 11/36/33 24/14/12 23/13/11
f 2/44/41 17/5/5 24/14/12
f 1/47/42 20/11/9 16/4/4
f 6/40/37 16/4/4 22/12/10
f 5/41/38 22/12/10 20/11/9
f 1/48/42 18/8/7 20/10/9
f 5/45/38 20/10/9 21/9/8
f 4/42/39 21/9/8 18/8/7
f 1/48/42 14/6/3 18/8/7
f 4/42/39 18/8/7 19/7/6
f 3/43/40 19/7/6 14/6/3
f 1/47/42 16/4/4 13/1/1
f 6/40/37 17/5/5 16/4/4
f 2/44/41 13/1/1 17/5/5
f 1/47/42 13/1/1 14/3/3
f 3/46/40 14/3/3 15/2/2
f 2/44/41 15/2/2 13/1/1
o Sphere.001_Sphere.003
v -0.572949 1.299015 0.030614
v -0.493980 1.241642 0.090941
v -0.603112 1.206182 0.090941
v -0.670560 1.299015 0.090941
v -0.603112 1.391848 0.090941
v -0.493980 1.356389 0.090941
v -0.542786 1.206182 0.188553
v -0.651918 1.241642 0.188553
v -0.651918 1.356389 0.188553
v -0.542786 1.391848 0.188553
v -0.475338 1.299015 0.188553
v -0.572949 1.299015 0.248880
v -0.526532 1.265292 0.046913
v -0.590678 1.244449 0.046913
v -0.544261 1.210725 0.082372
v -0.526532 1.332739 0.046913
v -0.480115 1.299015 0.082372
v -0.630324 1.299015 0.046913
v -0.648053 1.244449 0.082372
v -0.590678 1.353581 0.046913
v -0.648053 1.353581 0.082372
v -0.544261 1.387305 0.082372
v -0.469157 1.332739 0.139747
v -0.469157 1.265292 0.139747
v -0.508802 1.210725 0.139747
v -0.572949 1.189882 0.139747
v -0.637096 1.210725 0.139747
v -0.676741 1.265292 0.139747
v -0.676741 1.332739 0.139747
v -0.637096 1.387306 0.139747
v -0.572949 1.408148 0.139747
v -0.508802 1.387306 0.139747
v -0.497845 1.244449 0.197122
v -0.601637 1.210725 0.197123
v -0.665783 1.299015 0.197122
v -0.601637 1.387305 0.197123
v -0.497845 1.353581 0.197122
v -0.515575 1.299015 0.232581
v -0.555220 1.244449 0.232582
v -0.619366 1.265292 0.232582
v -0.619366 1.332739 0.232582
v -0.555220 1.353581 0.232582
vt 0.721153 0.782667 0.0
vt 0.721153 0.738624 0.0
vt 0.744016 0.767986 0.0
vt 0.721153 0.826708 0.0
vt 0.701751 0.804688 0.0
vt 0.523804 0.767986 0.0
vt 0.549379 0.767986 0.0
vt 0.536592 0.804688 0.0
vt 0.549379 0.841389 0.0
vt 0.523804 0.841389 0.0
vt 0.744016 0.841389 0.0
vt 0.721153 0.870751 0.0
vt 0.682349 0.826708 0.0
vt 0.682349 0.782667 0.0
vt 0.682349 0.738624 0.0
vt 0.776206 0.694581 0.0
vt 0.572243 0.738624 0.0
vt 0.572243 0.782667 0.0
vt 0.572243 0.826708 0.0
vt 0.572243 0.870751 0.0
vt 0.666099 0.914794 0.0
vt 0.682349 0.870751 0.0
vt 0.659485 0.767986 0.0
vt 0.555993 0.694581 0.0
vt 0.611046 0.738624 0.0
vt 0.591645 0.804688 0.0
vt 0.611046 0.870751 0.0
vt 0.659485 0.841389 0.0
vt 0.646698 0.804688 0.0
vt 0.633910 0.767986 0.0
vt 0.611046 0.782667 0.0
vt 0.611046 0.826708 0.0
vt 0.633910 0.841389 0.0
vt 0.646697 0.875990 0.0
vt 0.627296 0.804688 0.0
vt 0.666099 0.804688 0.0
vt 0.591645 0.843490 0.0
vt 0.591645 0.765885 0.0
vt 0.646697 0.733385 0.0
vt 0.701751 0.843490 0.0
vt 0.756804 0.875990 0.0
vt 0.555993 0.804688 0.0
vt 0.536591 0.733385 0.0
vt 0.701751 0.765885 0.0
vt 0.536591 0.875990 0.0
vt 0.756804 0.733385 0.0
vt 0.737402 0.804688 0.0
vt 0.517190 0.804688 0.0
usemtl Material.007_mage2.png
s 1
f 55/49/1 57/50/2 56/51/3
f 55/49/1 58/52/4 59/53/5
f 56/54/3 61/55/6 60/56/7
f 60/56/7 63/57/8 62/58/9
f 62/59/9 64/60/10 58/52/4
f 59/53/5 65/61/11 66/62/12
f 57/50/2 67/63/13 68/64/14
f 61/55/6 69/65/15 70/66/16
f 63/57/8 71/67/17 72/68/18
f 64/60/10 73/69/19 74/70/20
f 66/62/12 75/71/21 67/63/13
f 68/72/14 76/73/22 69/65/15
f 70/66/16 77/74/23 71/67/17
f 72/68/18 78/75/24 73/69/19
f 74/70/20 79/76/25 65/61/11
f 75/71/21 80/77/26 81/78/27
f 76/73/22 81/78/27 82/79/28
f 77/74/23 82/79/28 83/80/29
f 78/75/24 83/80/29 84/81/30
f 79/76/25 84/81/30 80/77/26
f 52/82/31 84/81/30 79/76/25
f 54/83/32 80/77/26 84/81/30
f 53/84/33 79/76/25 80/77/26
f 51/85/34 83/80/29 78/75/24
f 54/83/32 84/81/30 83/80/29
f 52/82/31 78/75/24 84/81/30
f 50/86/35 82/79/28 77/74/23
f 54/83/32 83/80/29 82/79/28
f 51/85/34 77/74/23 83/80/29
f 49/87/36 81/78/27 76/73/22
f 54/83/32 82/79/28 81/78/27
f 50/86/35 76/73/22 82/79/28
f 53/84/33 80/77/26 75/71/21
f 54/83/32 81/78/27 80/77/26
f 49/87/36 75/71/21 81/78/27
f 48/88/37 74/70/20 65/61/11
f 53/84/33 65/61/11 79/76/25
f 52/82/31 79/76/25 74/70/20
f 47/89/38 72/68/18 73/69/19
f 52/82/31 73/69/19 78/75/24
f 51/85/34 78/75/24 72/68/18
f 46/90/39 70/66/16 71/67/17
f 51/85/34 71/67/17 77/74/23
f 50/86/35 77/74/23 70/66/16
f 45/91/40 68/72/14 69/65/15
f 50/86/35 69/65/15 76/73/22
f 49/87/36 76/73/22 68/72/14
f 44/92/41 66/62/12 67/63/13
f 49/87/36 67/63/13 75/71/21
f 53/84/33 75/71/21 66/62/12
f 47/89/38 73/69/19 64/60/10
f 52/82/31 74/70/20 73/69/19
f 48/88/37 64/60/10 74/70/20
f 46/90/39 71/67/17 63/57/8
f 51/85/34 72/68/18 71/67/17
f 47/93/38 63/57/8 72/68/18
f 45/91/40 69/65/15 61/55/6
f 50/86/35 70/66/16 69/65/15
f 46/90/39 61/55/6 70/66/16
f 44/92/41 67/63/13 57/50/2
f 49/87/36 68/64/14 67/63/13
f 45/94/40 57/50/2 68/64/14
f 48/88/37 65/61/11 59/53/5
f 53/84/33 66/62/12 65/61/11
f 44/92/41 59/53/5 66/62/12
f 43/95/42 62/59/9 58/52/4
f 48/88/37 58/52/4 64/60/10
f 47/89/38 64/60/10 62/59/9
f 43/96/42 60/56/7 62/58/9
f 47/93/38 62/58/9 63/57/8
f 46/90/39 63/57/8 60/56/7
f 43/96/42 56/54/3 60/56/7
f 46/90/39 60/56/7 61/55/6
f 45/91/40 61/55/6 56/54/3
f 43/95/42 58/52/4 55/49/1
f 48/88/37 59/53/5 58/52/4
f 44/92/41 55/49/1 59/53/5
f 43/95/42 55/49/1 56/51/3
f 45/94/40 56/51/3 57/50/2
f 44/92/41 57/50/2 55/49/1
o Cone.001_Cone.001
v 0.173074 1.577181 -0.081306
v 0.200665 1.577504 -0.039416
v 0.219912 1.579755 0.007135
v 0.230075 1.583846 0.056559
v 0.230764 1.589620 0.106956
v 0.221952 1.596856 0.156389
v 0.203978 1.605274 0.202959
v 0.177532 1.614552 0.244876
v 0.143631 1.624333 0.280530
v 0.103577 1.634241 0.308549
v 0.058911 1.643896 0.327858
v 0.011348 1.652926 0.337714
v -0.037284 1.660985 0.337739
v -0.085116 1.667762 0.327931
v -0.130309 1.672997 0.308668
v -0.171128 1.676490 0.280690
v -0.206003 1.678105 0.245072
v -0.233594 1.677781 0.203182
v -0.252841 1.675530 0.156631
v -0.263004 1.671439 0.107207
v -0.263692 1.665665 0.056810
v -0.254880 1.658430 0.007377
v -0.236906 1.650011 -0.039193
v -0.210460 1.640733 -0.081110
v -0.176559 1.630952 -0.116764
v -0.136506 1.621044 -0.144783
v -0.091839 1.611389 -0.164092
v -0.044276 1.602359 -0.173948
v 0.004356 1.594301 -0.173973
v 0.052188 1.587524 -0.164165
v 0.097381 1.582288 -0.144902
v 0.138200 1.578796 -0.116924
v 0.080088 2.210534 0.013780
v -0.016464 1.627643 0.081883
vt 0.659631 0.169052 0.0
vt 0.682501 0.168890 0.0
vt 0.671547 0.485566 0.0
vt 0.636745 0.170177 0.0
vt 0.614448 0.172223 0.0
vt 0.593208 0.175110 0.0
vt 0.573267 0.178727 0.0
vt 0.554651 0.182937 0.0
vt 0.537248 0.187576 0.0
vt 0.520871 0.192466 0.0
vt 0.505315 0.197420 0.0
vt 0.490384 0.202248 0.0
vt 0.475903 0.206763 0.0
vt 0.461722 0.210792 0.0
vt 0.447715 0.214181 0.0
vt 0.433780 0.216798 0.0
vt 0.419837 0.218544 0.0
vt 0.405826 0.219352 0.0
vt 0.936693 0.219190 0.0
vt 0.922426 0.218065 0.0
vt 0.907998 0.216019 0.0
vt 0.893394 0.213132 0.0
vt 0.878600 0.209515 0.0
vt 0.863594 0.205305 0.0
vt 0.848337 0.200666 0.0
vt 0.832770 0.195776 0.0
vt 0.816805 0.190822 0.0
vt 0.800325 0.185994 0.0
vt 0.783178 0.181479 0.0
vt 0.765194 0.177450 0.0
vt 0.746200 0.174062 0.0
vt 0.726068 0.171444 0.0
vt 0.704779 0.169698 0.0
vt 0.944043 0.194121 0.0
vt 0.399052 0.194121 0.0
vt 0.391701 0.219190 0.0
vt 0.377435 0.218065 0.0
vt 0.363006 0.216019 0.0
vt 0.348403 0.213132 0.0
vt 0.333609 0.209515 0.0
vt 0.318602 0.205305 0.0
vt 0.303345 0.200666 0.0
vt 0.287778 0.195776 0.0
vt 0.271814 0.190822 0.0
vt 0.255333 0.185994 0.0
vt 0.238187 0.181479 0.0
vt 0.220203 0.177450 0.0
vn 0.737205 0.492569 -0.462447
vn 0.626942 0.626942 -0.462447
vn 0.819117 0.339274 -0.462447
vn 0.869594 0.172948 -0.462447
vn 0.886624 0.000000 -0.462447
vn 0.869594 -0.172948 -0.462447
vn 0.819117 -0.339274 -0.462447
vn 0.737205 -0.492569 -0.462447
vn 0.626942 -0.626942 -0.462447
vn 0.492569 -0.737205 -0.462447
vn 0.339274 -0.819117 -0.462447
vn 0.172948 -0.869594 -0.462447
vn 0.000000 -0.886624 -0.462447
vn -0.172948 -0.869594 -0.462447
vn -0.339274 -0.819117 -0.462447
vn -0.492569 -0.737205 -0.462447
vn -0.626942 -0.626942 -0.462447
vn -0.737205 -0.492569 -0.462447
vn -0.819117 -0.339274 -0.462447
vn -0.869594 -0.172948 -0.462447
vn -0.886624 0.000000 -0.462447
vn -0.869594 0.172948 -0.462447
vn -0.819117 0.339274 -0.462447
vn -0.737205 0.492569 -0.462447
vn -0.626942 0.626942 -0.462447
vn -0.492569 0.737205 -0.462447
vn -0.339274 0.819147 -0.462447
vn -0.172948 0.869594 -0.462447
vn 0.000000 0.886624 -0.462447
vn 0.172948 0.869594 -0.462447
vn 0.339274 0.819117 -0.462447
vn 0.492569 0.737205 -0.462447
usemtl Material.001_mage2.png
s 1
f 86/97/43 85/98/44 117/99/32
f 117/99/32 87/100/45 86/97/43
f 117/99/32 88/101/46 87/100/45
f 117/99/32 89/102/47 88/101/46
f 117/99/32 90/103/48 89/102/47
f 117/99/32 91/104/49 90/103/48
f 117/99/32 92/105/50 91/104/49
f 117/99/32 93/106/51 92/105/50
f 117/99/32 94/107/52 93/106/51
f 117/99/32 95/108/53 94/107/52
f 117/99/32 96/109/54 95/108/53
f 117/99/32 97/110/55 96/109/54
f 117/99/32 98/111/56 97/110/55
f 117/99/32 99/112/57 98/111/56
f 117/99/32 100/113/58 99/112/57
f 117/99/32 101/114/59 100/113/58
f 117/99/32 102/115/60 101/114/59
f 117/99/32 103/116/61 102/115/60
f 117/99/32 104/117/62 103/116/61
f 117/99/32 105/118/63 104/117/62
f 117/99/32 106/119/64 105/118/63
f 117/99/32 107/120/65 106/119/64
f 117/99/32 108/121/66 107/120/65
f 117/99/32 109/122/67 108/121/66
f 117/99/32 110/123/68 109/122/67
f 117/99/32 111/124/69 110/123/68
f 117/99/32 112/125/70 111/124/69
f 117/99/32 113/126/71 112/125/70
f 117/99/32 114/127/72 113/126/71
f 117/99/32 115/128/73 114/127/72
f 117/99/32 116/129/74 115/128/73
f 117/99/32 85/98/44 116/129/74
f 118/130/42 85/98/44 86/97/43
f 118/131/42 86/97/43 87/100/45
f 118/131/42 87/100/45 88/101/46
f 118/131/42 88/101/46 89/102/47
f 118/131/42 89/102/47 90/103/48
f 118/131/42 90/103/48 91/104/49
f 118/131/42 91/104/49 92/105/50
f 118/131/42 92/105/50 93/106/51
f 118/131/42 93/106/51 94/107/52
f 118/131/42 94/107/52 95/108/53
f 118/131/42 95/108/53 96/109/54
f 118/131/42 96/109/54 97/110/55
f 118/131/42 97/110/55 98/111/56
f 118/131/42 98/111/56 99/112/57
f 118/131/42 99/112/57 100/113/58
f 118/131/42 100/113/58 101/114/59
f 118/131/42 101/114/59 102/132/60
f 118/131/42 102/132/60 103/133/61
f 118/131/42 103/133/61 104/134/62
f 118/131/42 104/134/62 105/135/63
f 118/131/42 105/135/63 106/136/64
f 118/131/42 106/136/64 107/137/65
f 118/131/42 107/137/65 108/138/66
f 118/131/42 108/138/66 109/139/67
f 118/131/42 109/139/67 110/140/68
f 118/131/42 110/140/68 111/141/69
f 118/131/42 111/141/69 112/142/70
f 118/131/42 112/142/70 113/143/71
f 118/130/42 113/126/71 114/127/72
f 118/130/42 114/127/72 115/128/73
f 118/130/42 115/128/73 116/129/74
f 116/129/74 85/98/44 118/130/42
o Mesh.001_Mesh.004
v 0.439172 0.822654 -0.082918
v 0.465957 0.877550 -0.090794
v 0.492944 0.938685 -0.090585
v 0.519096 1.003711 -0.082302
v 0.543408 1.070128 -0.066261
v 0.564946 1.135385 -0.043080
v 0.582881 1.196973 -0.013649
v 0.596525 1.252525 0.020901
v 0.605353 1.299907 0.059243
v 0.609027 1.337298 0.099901
v 0.607404 1.363260 0.141315
v 0.600547 1.376797 0.181893
v 0.588720 1.377388 0.220074
v 0.572378 1.365010 0.254393
v 0.552147 1.340139 0.283530
v 0.528807 1.303731 0.306365
v 0.503252 1.257184 0.322021
v 0.476467 1.202288 0.329896
v 0.449480 1.141153 0.329688
v 0.423328 1.076127 0.321404
v 0.399016 1.009709 0.305364
v 0.377478 0.944453 0.282182
v 0.359543 0.882865 0.252751
v 0.345899 0.827313 0.218201
v 0.337071 0.779931 0.179860
v 0.333398 0.742540 0.139201
v 0.335021 0.716577 0.097787
v 0.341877 0.703041 0.057210
v 0.353704 0.702450 0.019028
v 0.370047 0.714828 -0.015291
v 0.390277 0.739699 -0.044427
v 0.413618 0.776108 -0.067262
v 0.010079 1.243975 -0.026443
v 0.471212 1.039919 0.119551
vt 0.265454 0.203739 0.0
vt 0.267467 0.176291 0.0
vt 0.416627 0.386952 0.0
vt 0.262179 0.234307 0.0
vt 0.257918 0.266820 0.0
vt 0.252848 0.300028 0.0
vt 0.247097 0.332656 0.0
vt 0.240783 0.363450 0.0
vt 0.234031 0.391226 0.0
vt 0.226978 0.414917 0.0
vt 0.219772 0.433613 0.0
vt 0.212567 0.446594 0.0
vt 0.205506 0.453363 0.0
vt 0.001399 0.386952 0.0
vt 0.198714 0.453658 0.0
vt 0.192288 0.447469 0.0
vt 0.186297 0.435033 0.0
vt 0.180789 0.416829 0.0
vt 0.175793 0.393556 0.0
vt 0.171340 0.366108 0.0
vt 0.167467 0.335540 0.0
vt 0.164236 0.303027 0.0
vt 0.161759 0.269819 0.0
vt 0.160238 0.237190 0.0
vt 0.160035 0.206396 0.0
vt 0.161821 0.178620 0.0
vt 0.166853 0.154929 0.0
vt 0.177410 0.136234 0.0
vt 0.196408 0.123253 0.0
vt 0.222345 0.116484 0.0
vt 0.245059 0.116189 0.0
vt 0.258739 0.122378 0.0
vt 0.265379 0.134814 0.0
vt 0.267737 0.153018 0.0
vt 0.209013 0.284923 0.0
usemtl Material.002_mage2.png
s 1
f 120/144/43 119/145/44 151/146/32
f 151/146/32 121/147/45 120/144/43
f 151/146/32 122/148/46 121/147/45
f 151/146/32 123/149/47 122/148/46
f 151/146/32 124/150/48 123/149/47
f 151/146/32 125/151/49 124/150/48
f 151/146/32 126/152/50 125/151/49
f 151/146/32 127/153/51 126/152/50
f 151/146/32 128/154/52 127/153/51
f 151/146/32 129/155/53 128/154/52
f 151/146/32 130/156/54 129/155/53
f 151/157/32 131/158/55 130/156/54
f 151/157/32 132/159/56 131/158/55
f 151/157/32 133/160/57 132/159/56
f 151/157/32 134/161/58 133/160/57
f 151/157/32 135/162/59 134/161/58
f 151/157/32 136/163/60 135/162/59
f 151/157/32 137/164/61 136/163/60
f 151/157/32 138/165/62 137/164/61
f 151/157/32 139/166/63 138/165/62
f 151/157/32 140/167/64 139/166/63
f 151/157/32 141/168/65 140/167/64
f 151/157/32 142/169/66 141/168/65
f 151/157/32 143/170/67 142/169/66
f 151/157/32 144/171/68 143/170/67
f 151/157/32 145/172/69 144/171/68
f 151/146/32 146/173/70 145/172/69
f 151/146/32 147/174/71 146/173/70
f 151/146/32 148/175/72 147/174/71
f 151/146/32 149/176/73 148/175/72
f 151/146/32 150/177/74 149/176/73
f 151/146/32 119/145/44 150/177/74
f 152/178/42 119/145/44 120/144/43
f 152/178/42 120/144/43 121/147/45
f 152/178/42 121/147/45 122/148/46
f 152/178/42 122/148/46 123/149/47
f 152/178/42 123/149/47 124/150/48
f 152/178/42 124/150/48 125/151/49
f 152/178/42 125/151/49 126/152/50
f 152/178/42 126/152/50 127/153/51
f 152/178/42 127/153/51 128/154/52
f 152/178/42 128/154/52 129/155/53
f 152/178/42 129/155/53 130/156/54
f 152/178/42 130/156/54 131/158/55
f 152/178/42 131/158/55 132/159/56
f 152/178/42 132/159/56 133/160/57
f 152/178/42 133/160/57 134/161/58
f 152/178/42 134/161/58 135/162/59
f 152/178/42 135/162/59 136/163/60
f 152/178/42 136/163/60 137/164/61
f 152/178/42 137/164/61 138/165/62
f 152/178/42 138/165/62 139/166/63
f 152/178/42 139/166/63 140/167/64
f 152/178/42 140/167/64 141/168/65
f 152/178/42 141/168/65 142/169/66
f 152/178/42 142/169/66 143/170/67
f 152/178/42 143/170/67 144/171/68
f 152/178/42 144/171/68 145/172/69
f 152/178/42 145/172/69 146/173/70
f 152/178/42 146/173/70 147/174/71
f 152/178/42 147/174/71 148/175/72
f 152/178/42 148/175/72 149/176/73
f 152/178/42 149/176/73 150/177/74
f 150/177/74 119/145/44 152/178/42
o Mesh_Mesh.003
v -0.609057 1.357097 -0.064839
v -0.605457 1.298313 -0.082855
v -0.599386 1.232657 -0.093731
v -0.591077 1.162651 -0.097050
v -0.580850 1.090985 -0.092683
v -0.569097 1.020414 -0.080800
v -0.556271 0.953649 -0.061855
v -0.542863 0.893256 -0.036579
v -0.529390 0.841557 -0.005941
v -0.516370 0.800538 0.028881
v -0.504301 0.771775 0.066549
v -0.493649 0.756373 0.105614
v -0.484823 0.754925 0.144577
v -0.478161 0.767486 0.181939
v -0.473921 0.793574 0.216264
v -0.472264 0.832185 0.246235
v -0.473254 0.881837 0.270698
v -0.476855 0.940620 0.288714
v -0.482926 1.006277 0.299590
v -0.491235 1.076283 0.302909
v -0.501462 1.147949 0.298542
v -0.513215 1.218520 0.286658
v -0.526041 1.285285 0.267714
v -0.539449 1.345677 0.242437
v -0.552922 1.397377 0.211799
v -0.565943 1.438396 0.176977
v -0.578011 1.467159 0.139310
v -0.588663 1.482560 0.100244
v -0.597489 1.484008 0.061282
v -0.604151 1.471447 0.023920
v -0.608391 1.445359 -0.010406
v -0.610048 1.406748 -0.040376
v -0.032660 1.185164 -0.009821
v -0.541156 1.119467 0.102929
vt 0.806028 0.389405 0.0
vt 0.811956 0.418797 0.0
vt 0.522037 0.332831 0.0
vt 0.801988 0.356577 0.0
vt 0.799848 0.321574 0.0
vt 0.799704 0.285741 0.0
vt 0.801768 0.250455 0.0
vt 0.806391 0.217073 0.0
vt 0.814067 0.186877 0.0
vt 0.825354 0.161027 0.0
vt 0.840612 0.140517 0.0
vt 0.859479 0.126136 0.0
vt 0.177161 0.118435 0.0
vt 0.197485 0.117711 0.0
vt 0.214959 0.123992 0.0
vt 0.228494 0.137036 0.0
vt 0.238080 0.156341 0.0
vt 0.244195 0.181167 0.0
vt 0.247377 0.210559 0.0
vt 0.248053 0.243387 0.0
vt 0.246505 0.278390 0.0
vt 0.242879 0.314223 0.0
vt 0.237228 0.349509 0.0
vt 0.229551 0.382891 0.0
vt 0.219853 0.413087 0.0
vt 0.208229 0.438937 0.0
vt 0.194953 0.459446 0.0
vt 0.180542 0.473828 0.0
vt 0.868921 0.481529 0.0
vt 0.854517 0.482253 0.0
vt 0.841243 0.475972 0.0
vt 0.829589 0.462928 0.0
vt 0.819803 0.443622 0.0
vt 0.170440 0.299982 0.0
vt 0.108761 0.418797 0.0
vt 0.102833 0.389405 0.0
vt 0.098793 0.356577 0.0
vt 0.096653 0.321574 0.0
vt 0.096509 0.285741 0.0
vt 0.098573 0.250455 0.0
vt 0.103196 0.217073 0.0
vt 0.110872 0.186877 0.0
vt 0.122158 0.161027 0.0
vt 0.137416 0.140517 0.0
vt 0.156284 0.126136 0.0
vt 0.165726 0.481529 0.0
vt 0.151322 0.482253 0.0
vt 0.138048 0.475972 0.0
vt 0.126394 0.462928 0.0
vt 0.116608 0.443622 0.0
usemtl Material.003_mage2.png
s 1
f 154/179/43 153/180/44 185/181/32
f 185/181/32 155/182/45 154/179/43
f 185/181/32 156/183/46 155/182/45
f 185/181/32 157/184/47 156/183/46
f 185/181/32 158/185/48 157/184/47
f 185/181/32 159/186/49 158/185/48
f 185/181/32 160/187/50 159/186/49
f 185/181/32 161/188/51 160/187/50
f 185/181/32 162/189/52 161/188/51
f 185/181/32 163/190/53 162/189/52
f 185/181/32 164/191/54 163/190/53
f 185/181/32 165/192/55 164/191/54
f 185/181/32 166/193/56 165/192/55
f 185/181/32 167/194/57 166/193/56
f 185/181/32 168/195/58 167/194/57
f 185/181/32 169/196/59 168/195/58
f 185/181/32 170/197/60 169/196/59
f 185/181/32 171/198/61 170/197/60
f 185/181/32 172/199/62 171/198/61
f 185/181/32 173/200/63 172/199/62
f 185/181/32 174/201/64 173/200/63
f 185/181/32 175/202/65 174/201/64
f 185/181/32 176/203/66 175/202/65
f 185/181/32 177/204/67 176/203/66
f 185/181/32 178/205/68 177/204/67
f 185/181/32 179/206/69 178/205/68
f 185/181/32 180/207/70 179/206/69
f 185/181/32 181/208/71 180/207/70
f 185/181/32 182/209/72 181/208/71
f 185/181/32 183/210/73 182/209/72
f 185/181/32 184/211/74 183/210/73
f 185/181/32 153/180/44 184/211/74
f 186/212/42 153/213/44 154/214/43
f 186/212/42 154/214/43 155/215/45
f 186/212/42 155/215/45 156/216/46
f 186/212/42 156/216/46 157/217/47
f 186/212/42 157/217/47 158/218/48
f 186/212/42 158/218/48 159/219/49
f 186/212/42 159/219/49 160/220/50
f 186/212/42 160/220/50 161/221/51
f 186/212/42 161/221/51 162/222/52
f 186/212/42 162/222/52 163/223/53
f 186/212/42 163/223/53 164/191/54
f 186/212/42 164/191/54 165/192/55
f 186/212/42 165/192/55 166/193/56
f 186/212/42 166/193/56 167/194/57
f 186/212/42 167/194/57 168/195/58
f 186/212/42 168/195/58 169/196/59
f 186/212/42 169/196/59 170/197/60
f 186/212/42 170/197/60 171/198/61
f 186/212/42 171/198/61 172/199/62
f 186/212/42 172/199/62 173/200/63
f 186/212/42 173/200/63 174/201/64
f 186/212/42 174/201/64 175/202/65
f 186/212/42 175/202/65 176/203/66
f 186/212/42 176/203/66 177/204/67
f 186/212/42 177/204/67 178/205/68
f 186/212/42 178/205/68 179/206/69
f 186/212/42 179/206/69 180/224/70
f 186/212/42 180/224/70 181/225/71
f 186/212/42 181/225/71 182/226/72
f 186/212/42 182/226/72 183/227/73
f 186/212/42 183/227/73 184/228/74
f 184/228/74 153/213/44 186/212/42
o Sphere_Sphere.002
v -0.022371 1.348321 0.102860
v -0.212370 1.476758 0.179851
v -0.166400 1.458904 -0.056984
v 0.073594 1.463346 -0.087097
v 0.175945 1.483947 0.131131
v -0.000790 1.492235 0.296111
v -0.233832 1.671163 0.037476
v -0.057096 1.662874 -0.127504
v 0.154483 1.678352 -0.011244
v 0.108514 1.696206 0.225590
v -0.131480 1.691763 0.255704
v -0.035515 1.806788 0.065747
v -0.132896 1.383567 0.151373
v -0.105876 1.373073 0.012164
v -0.217556 1.448565 0.057418
v -0.008532 1.392664 0.219709
v -0.120211 1.468158 0.264964
v 0.035189 1.375685 -0.005536
v -0.049469 1.440683 -0.099491
v 0.095350 1.387792 0.122735
v 0.151758 1.455403 0.011081
v 0.108036 1.472383 0.236327
v -0.072666 1.594535 0.309549
v -0.197030 1.585438 0.241213
v -0.257193 1.573329 0.112941
v -0.230171 1.562835 -0.026269
v -0.126288 1.557963 -0.123244
v 0.014779 1.560574 -0.140942
v 0.139143 1.569672 -0.072606
v 0.199306 1.581780 0.055666
v 0.172285 1.592275 0.194876
v 0.068401 1.597147 0.291851
v -0.209645 1.699707 0.157526
v -0.165923 1.682727 -0.067720
v 0.062325 1.686952 -0.096357
v 0.159669 1.706544 0.111189
v -0.008418 1.714427 0.268098
v -0.093076 1.779425 0.174143
v -0.153237 1.767317 0.045871
v -0.049354 1.762445 -0.051102
v 0.075009 1.771542 0.017234
v 0.047989 1.782037 0.156443
v 0.053174 1.710372 0.253277
v -0.071572 1.708062 0.268928
v 0.082493 1.745515 0.195240
v 0.007629 1.802993 0.112155
v -0.115576 1.741847 0.220092
v -0.065695 1.801636 0.121355
v 0.022293 1.757015 0.218856
v -0.022214 1.791187 0.169461
v -0.051869 1.755642 0.228161
v 0.164437 1.696995 0.048614
v 0.140543 1.706275 0.171717
v 0.120432 1.730780 -0.000223
v 0.021673 1.797538 0.039797
v 0.124867 1.747354 0.063178
v 0.066153 1.787042 0.086969
v 0.110662 1.752871 0.136364
v 0.003863 1.678766 -0.119696
v 0.113839 1.686811 -0.059265
v -0.054186 1.718006 -0.096173
v -0.042969 1.792809 0.004277
v 0.008308 1.732271 -0.081862
v 0.014977 1.776742 -0.022143
v 0.073690 1.737054 -0.045935
v -0.206642 1.680878 -0.019057
v -0.114777 1.676570 -0.104811
v -0.200048 1.724847 0.039987
v -0.096965 1.795342 0.054682
v -0.166303 1.732611 -0.015825
v -0.105019 1.774521 -0.007088
v -0.111688 1.730049 -0.066807
v -0.229368 1.689704 0.098023
v -0.176166 1.700411 0.211455
v -0.157660 1.747903 0.170030
v -0.128005 1.783448 0.111330
v -0.189289 1.741538 0.102594
v 0.093103 1.649412 0.265623
v 0.036289 1.543390 0.302279
v -0.104967 1.645744 0.290474
v -0.037036 1.542033 0.311478
v -0.000752 1.596782 0.311836
v -0.041139 1.658440 0.299349
v 0.033025 1.659813 0.290044
v 0.185040 1.632144 0.019754
v 0.196196 1.531095 0.093758
v 0.147101 1.646879 0.215217
v 0.182151 1.536550 0.166118
v 0.196846 1.587515 0.127379
v 0.176008 1.653107 0.156569
v 0.190214 1.647590 0.083382
v -0.020851 1.613077 -0.142871
v 0.047080 1.509365 -0.121867
v 0.153768 1.625850 -0.046920
v 0.111722 1.514094 -0.086347
v 0.082411 1.564483 -0.116607
v 0.107407 1.630924 -0.093167
v 0.042025 1.626141 -0.129094
v -0.240037 1.618560 0.002489
v -0.204987 1.508230 -0.046610
v -0.094175 1.611719 -0.133672
v -0.150990 1.505698 -0.097016
v -0.185912 1.559516 -0.082942
v -0.152135 1.622547 -0.104734
v -0.206750 1.625108 -0.053752
v -0.169609 1.641016 0.254954
v -0.211655 1.529259 0.215527
v -0.254083 1.624014 0.074849
v -0.242927 1.522965 0.148853
v -0.237309 1.579477 0.181851
v -0.243942 1.639552 0.137855
v -0.212312 1.645918 0.205291
v 0.148755 1.474232 0.187663
v 0.056890 1.478540 0.273418
v 0.148863 1.530001 0.222358
v 0.128026 1.595594 0.251549
v 0.094248 1.532563 0.273341
v 0.118279 1.454698 -0.042848
v 0.171481 1.465405 0.070583
v 0.154425 1.509191 -0.036684
v 0.179423 1.575632 -0.013244
v 0.186055 1.515557 0.030752
v -0.111061 1.444737 -0.084670
v 0.013685 1.447047 -0.100321
v -0.090911 1.495297 -0.121437
v -0.057134 1.558327 -0.143229
v -0.016748 1.496670 -0.130742
v -0.222324 1.458115 0.119993
v -0.198430 1.448834 -0.003110
v -0.248100 1.507519 0.085225
v -0.254733 1.567594 0.041228
v -0.233895 1.502002 0.012038
v -0.171726 1.468299 0.227872
v -0.061750 1.476344 0.288303
v -0.099912 1.528968 0.297701
v -0.140297 1.590626 0.285214
v -0.165294 1.524185 0.261774
v 0.039079 1.359768 0.113925
v 0.142161 1.430263 0.128620
v -0.014918 1.362300 0.164330
v -0.003701 1.437103 0.264780
v 0.047132 1.380588 0.175695
v 0.053802 1.425060 0.235414
v 0.108416 1.422499 0.184432
v 0.007808 1.353474 0.047252
v 0.057689 1.413262 -0.051485
v 0.070118 1.371661 0.057277
v 0.131402 1.413572 0.066013
v 0.099773 1.407206 -0.001423
v -0.065515 1.352116 0.056452
v -0.140380 1.409594 -0.026633
v -0.035673 1.363923 -0.000854
v -0.006018 1.399467 -0.059554
v -0.080180 1.398094 -0.050249
v -0.079560 1.357571 0.128810
v -0.178319 1.424330 0.168829
v -0.072864 1.378367 0.190750
v -0.066195 1.422839 0.250469
v -0.131577 1.418056 0.214542
v -0.124040 1.368067 0.081638
v -0.168548 1.402238 0.032243
v -0.182754 1.407756 0.105429
vt 0.070911 0.623461 0.0
vt 0.090563 0.667879 0.0
vt 0.031624 0.662756 0.0
vt 0.215143 0.637290 0.0
vt 0.235543 0.680961 0.0
vt 0.182166 0.676941 0.0
vt 0.646558 0.616977 0.0
vt 0.680598 0.658759 0.0
vt 0.618262 0.660099 0.0
vt 0.481326 0.628595 0.0
vt 0.519693 0.667378 0.0
vt 0.463079 0.673069 0.0
vt 0.344805 0.639972 0.0
vt 0.374273 0.680679 0.0
vt 0.321726 0.682793 0.0
vt 0.223536 0.755096 0.0
vt 0.201434 0.793187 0.0
vt 0.183635 0.752084 0.0
vt 0.074761 0.741458 0.0
vt 0.051741 0.779038 0.0
vt 0.033768 0.737886 0.0
vt 0.672083 0.733503 0.0
vt 0.651863 0.773336 0.0
vt 0.630372 0.734405 0.0
vt 0.519178 0.742534 0.0
vt 0.501812 0.783976 0.0
vt 0.478670 0.746610 0.0
vt 0.370653 0.755744 0.0
vt 0.351914 0.796244 0.0
vt 0.330872 0.757350 0.0
vt 0.126558 0.786337 0.0
vt 0.143925 0.827778 0.0
vt 0.103417 0.823702 0.0
vt 0.727167 0.774068 0.0
vt 0.745906 0.814568 0.0
vt 0.706126 0.812963 0.0
vt 0.576687 0.777125 0.0
vt 0.598789 0.815217 0.0
vt 0.558888 0.818229 0.0
vt 0.426995 0.791274 0.0
vt 0.450014 0.828855 0.0
vt 0.409021 0.832426 0.0
vt 0.276610 0.796977 0.0
vt 0.296830 0.836810 0.0
vt 0.255119 0.835908 0.0
vt 0.144439 0.902934 0.0
vt 0.106072 0.941718 0.0
vt 0.087825 0.897244 0.0
vt 0.749527 0.889634 0.0
vt 0.720058 0.930341 0.0
vt 0.696980 0.887519 0.0
vt 0.610796 0.889351 0.0
vt 0.590396 0.933022 0.0
vt 0.557419 0.893372 0.0
vt 0.465816 0.902433 0.0
vt 0.446165 0.946851 0.0
vt 0.406877 0.907557 0.0
vt 0.305345 0.911553 0.0
vt 0.271305 0.953335 0.0
vt 0.243009 0.910213 0.0
vt 0.355968 0.900771 0.0
vt 0.315919 0.872097 0.0
vt 0.168558 0.974749 0.0
vt 0.371770 0.978657 0.0
vt 0.234781 0.870367 0.0
vt 0.194053 0.897515 0.0
vt 0.511020 0.888119 0.0
vt 0.471312 0.862270 0.0
vt 0.535664 0.965072 0.0
vt 0.392635 0.869039 0.0
vt 0.653738 0.877924 0.0
vt 0.618093 0.849507 0.0
vt 0.657862 0.956087 0.0
vt 0.543654 0.855062 0.0
vt 0.794494 0.883308 0.0
vt 0.761838 0.850954 0.0
vt 0.775708 0.960689 0.0
vt 0.688031 0.848009 0.0
vt 0.159350 0.864738 0.0
vt 0.025201 0.960689 0.0
vt 0.082423 0.857089 0.0
vt 0.043987 0.883308 0.0
vt 0.257632 0.763257 0.0
vt 0.296618 0.764100 0.0
vt 0.219688 0.827667 0.0
vt 0.332651 0.830031 0.0
vt 0.405347 0.759842 0.0
vt 0.444499 0.756430 0.0
vt 0.373136 0.828397 0.0
vt 0.484507 0.818999 0.0
vt 0.554795 0.745676 0.0
vt 0.594942 0.742646 0.0
vt 0.523908 0.815034 0.0
vt 0.632885 0.807056 0.0
vt 0.707905 0.740282 0.0
vt 0.748389 0.741916 0.0
vt 0.671872 0.806213 0.0
vt 0.780600 0.810470 0.0
vt 0.109254 0.751313 0.0
vt 0.148655 0.755278 0.0
vt 0.069245 0.813882 0.0
vt 0.179541 0.824636 0.0
vt 0.386585 0.719358 0.0
vt 0.312778 0.722304 0.0
vt 0.534603 0.705574 0.0
vt 0.457676 0.713223 0.0
vt 0.691173 0.698216 0.0
vt 0.610034 0.699945 0.0
vt 0.096058 0.708042 0.0
vt 0.030093 0.810470 0.0
vt 0.767888 0.701274 0.0
vt 0.784274 0.737886 0.0
vt 0.242840 0.720806 0.0
vt 0.168400 0.715250 0.0
vt 0.282609 0.614226 0.0
vt 0.400454 0.609623 0.0
vt 0.278484 0.692388 0.0
vt 0.419240 0.687005 0.0
vt 0.543812 0.595563 0.0
vt 0.569306 0.672798 0.0
vt 0.747023 0.591656 0.0
vt 0.731221 0.669542 0.0
vt 0.160410 0.605240 0.0
vt 0.135767 0.682193 0.0
vt 0.910917 0.605240 0.0
vt 0.821418 0.623461 0.0
vt 0.782130 0.662756 0.0
vt 0.142700 0.643440 0.0
vt 0.057346 0.701074 0.0
vt 0.131621 0.721088 0.0
vt 0.017381 0.701274 0.0
vt 0.734791 0.630510 0.0
vt 0.729311 0.708607 0.0
vt 1.053049 0.575340 0.0
vt 0.206009 0.715152 0.0
vt 0.279756 0.653298 0.0
vt 0.277669 0.731484 0.0
vt 0.302543 0.575340 0.0
vt 0.650423 0.695143 0.0
vt 0.563086 0.633930 0.0
vt 0.572743 0.711771 0.0
vt 0.495498 0.706085 0.0
vt 0.413693 0.648144 0.0
vt 0.422673 0.725959 0.0
vt 0.349487 0.718085 0.0
vt 0.163966 0.789998 0.0
vt 0.238985 0.795592 0.0
vt 0.197490 0.858541 0.0
vt 0.764749 0.776111 0.0
vt 0.014243 0.776111 0.0
vt 0.089167 0.782561 0.0
vt 0.047420 0.844354 0.0
vt 0.614238 0.774720 0.0
vt 0.689523 0.773111 0.0
vt 0.652923 0.838829 0.0
vt 0.464421 0.787751 0.0
vt 0.539219 0.780315 0.0
vt 0.506874 0.849224 0.0
vt 0.314270 0.797201 0.0
vt 0.389496 0.794201 0.0
vt 0.354057 0.861705 0.0
vt 0.120245 0.864227 0.0
vt 0.724740 0.852228 0.0
vt 0.011331 0.850954 0.0
vt 0.581262 0.855161 0.0
vt 0.432600 0.869238 0.0
vt 0.275170 0.875170 0.0
vt 0.038439 0.922168 0.0
vt 0.187832 0.936383 0.0
vt 0.677796 0.994973 0.0
vt 0.919065 0.974749 0.0
vt 0.655010 0.917014 0.0
vt 0.788946 0.922168 0.0
vt 0.517953 0.926872 0.0
vt 0.359538 0.939802 0.0
vn 0.141789 -0.436445 -0.888455
vn 0.350017 -0.587725 -0.729423
vn 0.062288 -0.681204 -0.729423
vn 0.458907 0.000000 -0.888455
vn 0.667104 0.151250 -0.729423
vn 0.667104 -0.151250 -0.729423
vn -0.371258 -0.269723 -0.888455
vn -0.450789 -0.514481 -0.729423
vn -0.628620 -0.269723 -0.729423
vn -0.371258 0.269723 -0.888455
vn -0.628620 0.269723 -0.729423
vn -0.450789 0.514481 -0.729423
vn 0.141789 0.436445 -0.888455
vn 0.062288 0.681204 -0.729423
vn 0.350017 0.587725 -0.729423
vn 0.950743 0.151250 -0.270486
vn 0.999908 0.000000 -0.013123
vn 0.950743 -0.151250 -0.270486
vn 0.437666 -0.857479 -0.270486
vn 0.308969 -0.950957 -0.013123
vn 0.149937 -0.950957 -0.270486
vn -0.680258 -0.681204 -0.270486
vn -0.808924 -0.587725 -0.013123
vn -0.858089 -0.436445 -0.270486
vn -0.858089 0.436445 -0.270486
vn -0.808924 0.587725 -0.013123
vn -0.680258 0.681204 -0.270486
vn 0.149937 0.950957 -0.270486
vn 0.308969 0.950957 -0.013123
vn 0.437666 0.857479 -0.270486
vn 0.808924 -0.587725 0.013123
vn 0.858089 -0.436445 0.270486
vn 0.680258 -0.681204 0.270486
vn -0.308969 -0.950957 0.013123
vn -0.149937 -0.950957 0.270486
vn -0.437666 -0.857479 0.270486
vn -0.999908 0.000000 0.013123
vn -0.950743 -0.151250 0.270486
vn -0.950743 0.151250 0.270486
vn -0.308969 0.950957 0.013123
vn -0.437666 0.857479 0.270486
vn -0.149937 0.950957 0.270486
vn 0.808924 0.587725 0.013123
vn 0.680258 0.681204 0.270486
vn 0.858089 0.436445 0.270486
vn 0.628620 -0.269723 0.729423
vn 0.371258 -0.269723 0.888455
vn 0.450789 -0.514481 0.729423
vn -0.062288 -0.681204 0.729423
vn -0.141789 -0.436445 0.888455
vn -0.350017 -0.587725 0.729423
vn -0.667104 -0.151250 0.729423
vn -0.458907 0.000000 0.888455
vn -0.667104 0.151250 0.729423
vn -0.350017 0.587725 0.729423
vn -0.141789 0.436445 0.888455
vn -0.062288 0.681204 0.729423
vn 0.450789 0.514481 0.729423
vn 0.371258 0.269723 0.888455
vn 0.628620 0.269723 0.729423
vn 0.230842 0.710471 0.664754
vn 0.491317 0.710471 0.503769
vn 0.260475 0.000000 0.965453
vn 0.080477 0.247719 0.965453
vn 0.827540 0.247719 0.503769
vn 0.747032 0.000000 0.664754
vn -0.604358 0.439100 0.664754
vn -0.523881 0.686819 0.503769
vn -0.210730 0.153081 0.965453
vn 0.020112 0.863582 0.503769
vn -0.604358 -0.439100 0.664754
vn -0.815088 -0.285989 0.503769
vn -0.210730 -0.153081 0.965453
vn -0.815088 0.285989 0.503769
vn 0.230842 -0.710471 0.664754
vn 0.020112 -0.863582 0.503769
vn 0.080477 -0.247719 0.965453
vn -0.523881 -0.686819 0.503769
vn 0.827540 -0.247719 0.503769
vn 0.491317 -0.710471 0.503769
vn 0.864834 0.439100 -0.243294
vn 0.684866 0.686819 -0.243294
vn 0.957793 0.153081 0.243263
vn 0.441572 0.863582 0.243294
vn -0.150334 0.958220 -0.243294
vn -0.441572 0.863582 -0.243294
vn 0.150334 0.958220 0.243294
vn -0.684866 0.686819 0.243294
vn -0.957793 0.153081 -0.243263
vn -0.957793 -0.153081 -0.243263
vn -0.864834 0.439100 0.243294
vn -0.864834 -0.439100 0.243294
vn -0.441572 -0.863582 -0.243294
vn -0.150334 -0.958220 -0.243294
vn -0.684866 -0.686819 0.243294
vn 0.150334 -0.958220 0.243294
vn 0.684866 -0.686819 -0.243294
vn 0.864834 -0.439100 -0.243294
vn 0.441572 -0.863582 0.243294
vn 0.957793 -0.153081 0.243263
vn -0.020112 0.863582 -0.503769
vn 0.523881 0.686819 -0.503769
vn -0.827540 0.247719 -0.503769
vn -0.491317 0.710471 -0.503769
vn -0.491317 -0.710471 -0.503769
vn -0.827540 -0.247719 -0.503769
vn 0.523881 -0.686819 -0.503769
vn -0.020112 -0.863582 -0.503769
vn 0.815088 0.285989 -0.503769
vn 0.815088 -0.285989 -0.503769
vn 0.210730 0.153081 -0.965453
vn -0.080477 0.247719 -0.965453
vn 0.604358 0.439100 -0.664754
vn -0.230842 0.710471 -0.664754
vn -0.260475 0.000000 -0.965453
vn -0.747032 0.000000 -0.664754
vn -0.080477 -0.247719 -0.965453
vn -0.230842 -0.710471 -0.664754
vn 0.210730 -0.153081 -0.965453
vn 0.604358 -0.439100 -0.664754
vn 0.723594 -0.525712 -0.447218
vn -0.276376 -0.850642 -0.447218
vn 0.723594 0.525712 -0.447218
vn -0.276376 0.850642 -0.447218
vn 0.276376 -0.850642 0.447218
vn -0.723594 -0.525712 0.447218
vn -0.723594 0.525712 0.447218
vn 0.276376 0.850642 0.447218
usemtl Material.005_mage2.png
s 1
f 346/229/75 348/230/76 347/231/77
f 343/232/78 344/233/79 345/234/80
f 338/235/81 340/236/82 339/237/83
f 333/238/84 335/239/85 334/240/86
f 328/241/87 330/242/88 329/243/89
f 321/244/90 322/245/91 323/246/92
f 316/247/93 317/248/94 318/249/95
f 311/250/96 312/251/97 313/252/98
f 306/253/99 307/254/100 308/255/101
f 301/256/102 302/257/103 303/258/104
f 296/259/105 298/260/106 297/261/107
f 289/262/108 291/263/109 290/264/110
f 282/265/111 284/266/112 283/267/113
f 275/268/114 277/269/115 276/270/116
f 268/271/117 270/272/118 269/273/119
f 261/274/120 262/275/121 263/276/122
f 256/277/123 257/278/124 258/279/125
f 249/280/126 250/281/127 251/282/128
f 242/283/129 243/284/130 244/285/131
f 235/286/132 236/287/133 237/288/134
f 231/289/135 235/286/132 229/290/136
f 234/291/137 236/287/133 232/292/138
f 230/293/139 237/288/134 233/294/140
f 240/295/141 242/283/129 238/296/142
f 232/292/138 243/284/130 241/297/143
f 239/298/144 244/285/131 231/289/135
f 247/299/145 249/280/126 245/300/146
f 241/297/143 250/281/127 248/301/147
f 246/302/148 251/282/128 240/295/141
f 254/303/149 256/277/123 252/304/150
f 248/301/147 257/278/124 255/305/151
f 253/306/152 258/279/125 247/299/145
f 233/294/140 261/274/120 260/307/153
f 255/308/151 262/275/121 234/291/137
f 259/309/154 263/276/122 254/310/149
f 267/311/155 265/312/156 268/271/117
f 230/293/139 266/313/157 269/273/119
f 264/314/158 229/290/136 270/272/118
f 274/315/159 272/316/160 275/268/114
f 239/298/144 273/317/161 276/270/116
f 271/318/162 238/296/142 277/269/115
f 281/319/163 279/320/164 282/265/111
f 246/302/148 280/321/165 283/267/113
f 278/322/166 245/300/146 284/266/112
f 288/323/167 286/324/168 289/262/108
f 253/306/152 287/325/169 290/264/110
f 285/326/170 252/304/150 291/263/109
f 295/327/171 293/328/172 296/259/105
f 259/309/154 294/329/173 297/261/107
f 292/330/174 260/307/153 298/260/106
f 274/315/159 301/256/102 299/331/175
f 264/314/158 302/257/103 273/317/161
f 300/332/176 303/258/104 265/312/156
f 281/319/163 306/253/99 304/333/177
f 271/318/162 307/254/100 280/321/165
f 305/334/178 308/255/101 272/316/160
f 288/323/167 311/250/96 309/335/179
f 278/322/166 312/251/97 287/325/169
f 310/336/180 313/252/98 279/320/164
f 295/327/171 316/247/93 314/337/181
f 285/338/170 317/248/94 294/329/173
f 315/339/182 318/340/95 286/324/168
f 267/311/155 321/244/90 320/341/183
f 292/330/174 322/245/91 266/313/157
f 319/342/184 323/246/92 293/328/172
f 326/343/185 324/344/186 328/241/87
f 300/332/176 327/345/187 329/243/89
f 325/346/188 299/331/175 330/242/88
f 324/344/186 331/347/189 333/238/84
f 305/334/178 325/346/188 334/240/86
f 332/348/190 304/333/177 335/239/85
f 331/347/189 336/349/191 338/235/81
f 310/336/180 332/348/190 339/237/83
f 337/350/192 309/335/179 340/236/82
f 326/343/185 343/232/78 341/351/193
f 320/341/183 344/233/79 327/345/187
f 342/352/194 345/234/80 319/342/184
f 336/349/191 341/353/193 346/354/75
f 315/339/182 337/350/192 347/355/77
f 342/352/194 314/337/181 348/230/76
f 199/356/1 342/352/194 348/230/76
f 201/357/2 348/230/76 314/337/181
f 188/358/195 314/337/181 342/352/194
f 201/357/2 315/359/182 347/231/77
f 200/360/3 347/355/77 337/350/192
f 189/361/196 337/350/192 315/339/182
f 200/360/3 336/349/191 346/354/75
f 199/356/1 346/229/75 341/351/193
f 187/362/42 341/353/193 336/349/191
f 199/356/1 345/234/80 342/352/194
f 203/363/5 319/342/184 345/234/80
f 188/358/195 342/352/194 319/342/184
f 203/363/5 344/233/79 320/341/183
f 202/364/4 327/345/187 344/233/79
f 192/365/197 320/341/183 327/345/187
f 202/364/4 343/232/78 326/343/185
f 199/356/1 341/351/193 343/232/78
f 187/366/42 326/343/185 341/351/193
f 200/360/3 337/350/192 340/236/82
f 205/367/6 340/236/82 309/335/179
f 189/361/196 309/335/179 337/350/192
f 205/367/6 310/336/180 339/237/83
f 204/368/7 339/237/83 332/348/190
f 190/369/39 332/348/190 310/336/180
f 204/368/7 331/347/189 338/235/81
f 200/360/3 338/235/81 336/349/191
f 187/362/42 336/349/191 331/347/189
f 204/368/7 332/348/190 335/239/85
f 207/370/8 335/239/85 304/333/177
f 190/369/39 304/333/177 332/348/190
f 207/370/8 305/334/178 334/240/86
f 206/371/9 334/240/86 325/346/188
f 191/372/198 325/346/188 305/334/178
f 206/371/9 324/344/186 333/238/84
f 204/368/7 333/238/84 331/347/189
f 187/366/42 331/347/189 324/344/186
f 206/371/9 325/346/188 330/242/88
f 208/373/10 330/242/88 299/331/175
f 191/372/198 299/331/175 325/346/188
f 208/373/10 300/332/176 329/243/89
f 202/364/4 329/243/89 327/345/187
f 192/365/197 327/345/187 300/332/176
f 202/364/4 326/343/185 328/241/87
f 206/371/9 328/241/87 324/344/186
f 187/366/42 324/344/186 326/343/185
f 203/363/5 323/246/92 319/342/184
f 210/374/12 293/328/172 323/246/92
f 188/358/195 319/342/184 293/328/172
f 210/374/12 322/245/91 292/330/174
f 209/375/11 266/313/157 322/245/91
f 197/376/33 292/330/174 266/313/157
f 209/375/11 321/244/90 267/311/155
f 203/363/5 320/341/183 321/244/90
f 192/365/197 267/311/155 320/341/183
f 201/357/2 318/249/95 315/359/182
f 212/377/14 286/324/168 318/340/95
f 189/361/196 315/339/182 286/324/168
f 212/378/14 317/248/94 285/338/170
f 211/379/13 294/329/173 317/248/94
f 193/380/199 285/338/170 294/329/173
f 211/379/13 316/247/93 295/327/171
f 201/357/2 314/337/181 316/247/93
f 188/358/195 295/327/171 314/337/181
f 205/367/6 313/252/98 310/336/180
f 214/381/16 279/320/164 313/252/98
f 190/369/39 310/336/180 279/320/164
f 214/381/16 312/251/97 278/322/166
f 213/382/15 287/325/169 312/251/97
f 194/383/200 278/322/166 287/325/169
f 213/382/15 311/250/96 288/323/167
f 205/367/6 309/335/179 311/250/96
f 189/361/196 288/323/167 309/335/179
f 207/370/8 308/255/101 305/334/178
f 216/384/18 272/316/160 308/255/101
f 191/372/198 305/334/178 272/316/160
f 216/384/18 307/254/100 271/318/162
f 215/385/17 280/321/165 307/254/100
f 195/386/201 271/318/162 280/321/165
f 215/385/17 306/253/99 281/319/163
f 207/370/8 304/333/177 306/253/99
f 190/369/39 281/319/163 304/333/177
f 208/373/10 303/258/104 300/332/176
f 218/387/20 265/312/156 303/258/104
f 192/365/197 300/332/176 265/312/156
f 218/387/20 302/257/103 264/314/158
f 217/388/19 273/317/161 302/257/103
f 196/389/202 264/314/158 273/317/161
f 217/388/19 301/256/102 274/315/159
f 208/373/10 299/331/175 301/256/102
f 191/372/198 274/315/159 299/331/175
f 210/374/12 292/330/174 298/260/106
f 219/390/21 298/260/106 260/307/153
f 197/376/33 260/307/153 292/330/174
f 219/390/21 259/309/154 297/261/107
f 211/379/13 297/261/107 294/329/173
f 193/380/199 294/329/173 259/309/154
f 211/379/13 295/327/171 296/259/105
f 210/374/12 296/259/105 293/328/172
f 188/358/195 293/328/172 295/327/171
f 212/377/14 285/326/170 291/263/109
f 220/391/22 291/263/109 252/304/150
f 193/380/199 252/392/150 285/338/170
f 220/391/22 253/306/152 290/264/110
f 213/382/15 290/264/110 287/325/169
f 194/383/200 287/325/169 253/306/152
f 213/382/15 288/323/167 289/262/108
f 212/377/14 289/262/108 286/324/168
f 189/361/196 286/324/168 288/323/167
f 214/381/16 278/322/166 284/266/112
f 221/393/23 284/266/112 245/300/146
f 194/383/200 245/300/146 278/322/166
f 221/393/23 246/302/148 283/267/113
f 215/385/17 283/267/113 280/321/165
f 195/386/201 280/321/165 246/302/148
f 215/385/17 281/319/163 282/265/111
f 214/381/16 282/265/111 279/320/164
f 190/369/39 279/320/164 281/319/163
f 216/384/18 271/318/162 277/269/115
f 222/394/24 277/269/115 238/296/142
f 195/386/201 238/296/142 271/318/162
f 222/394/24 239/298/144 276/270/116
f 217/388/19 276/270/116 273/317/161
f 196/389/202 273/317/161 239/298/144
f 217/388/19 274/315/159 275/268/114
f 216/384/18 275/268/114 272/316/160
f 191/372/198 272/316/160 274/315/159
f 218/387/20 264/314/158 270/272/118
f 223/395/25 270/272/118 229/290/136
f 196/389/202 229/290/136 264/314/158
f 223/395/25 230/293/139 269/273/119
f 209/375/11 269/273/119 266/313/157
f 197/376/33 266/313/157 230/293/139
f 209/375/11 267/311/155 268/271/117
f 218/387/20 268/271/117 265/312/156
f 192/365/197 265/312/156 267/311/155
f 219/390/21 263/276/122 259/309/154
f 225/396/27 254/310/149 263/276/122
f 193/380/199 259/309/154 254/310/149
f 225/396/27 262/275/121 255/308/151
f 224/397/26 234/291/137 262/275/121
f 198/398/32 255/305/151 234/399/137
f 224/397/26 261/274/120 233/294/140
f 219/390/21 260/307/153 261/274/120
f 197/376/33 233/294/140 260/307/153
f 220/391/22 258/279/125 253/306/152
f 226/400/28 247/299/145 258/279/125
f 194/383/200 253/306/152 247/299/145
f 226/400/28 257/278/124 248/301/147
f 225/401/27 255/305/151 257/278/124
f 198/398/32 248/301/147 255/305/151
f 225/401/27 256/277/123 254/303/149
f 220/391/22 252/304/150 256/277/123
f 193/380/199 254/310/149 252/392/150
f 221/393/23 251/282/128 246/302/148
f 227/402/29 240/295/141 251/282/128
f 195/386/201 246/302/148 240/295/141
f 227/402/29 250/281/127 241/297/143
f 226/400/28 248/301/147 250/281/127
f 198/398/32 241/297/143 248/301/147
f 226/400/28 249/280/126 247/299/145
f 221/393/23 245/300/146 249/280/126
f 194/383/200 247/299/145 245/300/146
f 222/394/24 244/285/131 239/298/144
f 228/403/30 231/289/135 244/285/131
f 196/389/202 239/298/144 231/289/135
f 228/403/30 243/284/130 232/292/138
f 227/402/29 241/297/143 243/284/130
f 198/398/32 232/292/138 241/297/143
f 227/402/29 242/283/129 240/295/141
f 222/394/24 238/296/142 242/283/129
f 195/386/201 240/295/141 238/296/142
f 223/395/25 237/288/134 230/293/139
f 224/397/26 233/294/140 237/288/134
f 197/376/33 230/293/139 233/294/140
f 224/397/26 236/287/133 234/291/137
f 228/403/30 232/292/138 236/287/133
f 198/398/32 234/399/137 232/292/138
f 228/403/30 235/286/132 231/289/135
f 223/395/25 229/290/136 235/286/132
f 196/389/202 231/289/135 229/290/136
f 228/403/30 236/287/133 235/286/132
f 224/397/26 237/288/134 236/287/133
f 223/395/25 235/286/132 237/288/134
f 227/402/29 243/284/130 242/283/129
f 228/403/30 244/285/131 243/284/130
f 222/394/24 242/283/129 244/285/131
f 226/400/28 250/281/127 249/280/126
f 227/402/29 251/282/128 250/281/127
f 221/393/23 249/280/126 251/282/128
f 225/401/27 257/278/124 256/277/123
f 226/400/28 258/279/125 257/278/124
f 220/391/22 256/277/123 258/279/125
f 224/397/26 262/275/121 261/274/120
f 225/396/27 263/276/122 262/275/121
f 219/390/21 261/274/120 263/276/122
f 209/375/11 268/271/117 269/273/119
f 223/395/25 269/273/119 270/272/118
f 218/387/20 270/272/118 268/271/117
f 217/388/19 275/268/114 276/270/116
f 222/394/24 276/270/116 277/269/115
f 216/384/18 277/269/115 275/268/114
f 215/385/17 282/265/111 283/267/113
f 221/393/23 283/267/113 284/266/112
f 214/381/16 284/266/112 282/265/111
f 213/382/15 289/262/108 290/264/110
f 220/391/22 290/264/110 291/263/109
f 212/377/14 291/263/109 289/262/108
f 211/379/13 296/259/105 297/261/107
f 219/390/21 297/261/107 298/260/106
f 210/374/12 298/260/106 296/259/105
f 217/388/19 302/257/103 301/256/102
f 218/387/20 303/258/104 302/257/103
f 208/373/10 301/256/102 303/258/104
f 215/385/17 307/254/100 306/253/99
f 216/384/18 308/255/101 307/254/100
f 207/370/8 306/253/99 308/255/101
f 213/382/15 312/251/97 311/250/96
f 214/381/16 313/252/98 312/251/97
f 205/367/6 311/250/96 313/252/98
f 211/379/13 317/248/94 316/247/93
f 212/378/14 318/249/95 317/248/94
f 201/357/2 316/247/93 318/249/95
f 209/375/11 322/245/91 321/244/90
f 210/374/12 323/246/92 322/245/91
f 203/363/5 321/244/90 323/246/92
f 202/364/4 328/241/87 329/243/89
f 208/373/10 329/243/89 330/242/88
f 206/371/9 330/242/88 328/241/87
f 206/371/9 333/238/84 334/240/86
f 207/370/8 334/240/86 335/239/85
f 204/368/7 335/239/85 333/238/84
f 204/368/7 338/235/81 339/237/83
f 205/367/6 339/237/83 340/236/82
f 200/360/3 340/236/82 338/235/81
f 202/364/4 344/233/79 343/232/78
f 203/363/5 345/234/80 344/233/79
f 199/356/1 343/232/78 345/234/80
f 200/360/3 346/354/75 347/355/77
f 201/357/2 347/231/77 348/230/76
f 199/356/1 348/230/76 346/229/75
o Cone_Cone
v -0.338780 0.017458 -0.294742
v -0.290953 0.018170 -0.357423
v -0.232269 0.018885 -0.408713
v -0.164983 0.019575 -0.446641
v -0.091680 0.020213 -0.469750
v -0.015177 0.020775 -0.477152
v 0.061585 0.021239 -0.468562
v 0.135658 0.021587 -0.444310
v 0.204193 0.021806 -0.405329
v 0.264559 0.021888 -0.353116
v 0.314433 0.021830 -0.289677
v 0.351901 0.021632 -0.217452
v 0.375522 0.021305 -0.139214
v 0.384388 0.020859 -0.057972
v 0.378159 0.020311 0.023153
v 0.357074 0.019684 0.101044
v 0.321943 0.019001 0.172706
v 0.274117 0.018289 0.235387
v 0.215433 0.017574 0.286677
v 0.148147 0.016884 0.324605
v 0.074844 0.016246 0.347714
v -0.001659 0.015684 0.355116
v -0.078422 0.015220 0.346526
v -0.152494 0.014872 0.322274
v -0.221030 0.014653 0.283292
v -0.281395 0.014571 0.231079
v -0.331270 0.014630 0.167641
v -0.368737 0.014827 0.095415
v -0.392358 0.015154 0.017178
v -0.401224 0.015601 -0.064064
v -0.394995 0.016148 -0.145190
v -0.373910 0.016775 -0.223080
v -0.018921 1.576323 -0.051317
v -0.008418 0.018230 -0.061018
vt 0.072056 0.152227 0.0
vt 0.092014 0.152042 0.0
vt 0.234042 0.557818 0.0
vt 0.052593 0.152413 0.0
vt 0.033500 0.152593 0.0
vt 0.014622 0.152759 0.0
vt -0.004213 0.152905 0.0
vt 0.881278 0.557818 0.0
vt 0.624060 0.153026 0.0
vt 0.643022 0.152905 0.0
vt 0.604821 0.153117 0.0
vt 0.585189 0.153174 0.0
vt 0.565100 0.153195 0.0
vt 0.544560 0.153180 0.0
vt 0.523645 0.153128 0.0
vt 0.502501 0.153043 0.0
vt 0.481312 0.152927 0.0
vt 0.460269 0.152785 0.0
vt 0.439531 0.152621 0.0
vt 0.419191 0.152444 0.0
vt 0.399270 0.152258 0.0
vt 0.379718 0.152072 0.0
vt 0.360430 0.151892 0.0
vt 0.341260 0.151726 0.0
vt 0.322043 0.151580 0.0
vt 0.302612 0.151459 0.0
vt 0.282818 0.151369 0.0
vt 0.262548 0.151312 0.0
vt 0.241753 0.151290 0.0
vt 0.220461 0.151306 0.0
vt 0.198790 0.151357 0.0
vt 0.176934 0.151442 0.0
vt 0.155128 0.151558 0.0
vt 0.133601 0.151701 0.0
vt 0.112531 0.151864 0.0
vt 0.557660 0.152243 0.0
vt 0.739250 0.152042 0.0
vt 0.719292 0.152227 0.0
vt 0.699829 0.152413 0.0
vt 0.680736 0.152593 0.0
vt 0.661858 0.152759 0.0
vt 0.867697 0.151306 0.0
vt 0.846026 0.151357 0.0
vt 0.824170 0.151442 0.0
vt 0.802364 0.151558 0.0
vt 0.780837 0.151701 0.0
vt 0.759767 0.151864 0.0
usemtl Material.004_mage2.png
s 1
f 350/404/43 349/405/44 381/406/32
f 381/406/32 351/407/45 350/404/43
f 381/406/32 352/408/46 351/407/45
f 381/406/32 353/409/47 352/408/46
f 381/406/32 354/410/48 353/409/47
f 381/411/32 355/412/49 354/413/48
f 381/411/32 356/414/50 355/412/49
f 381/411/32 357/415/51 356/414/50
f 381/411/32 358/416/52 357/415/51
f 381/411/32 359/417/53 358/416/52
f 381/406/32 360/418/54 359/417/53
f 381/406/32 361/419/55 360/418/54
f 381/406/32 362/420/56 361/419/55
f 381/406/32 363/421/57 362/420/56
f 381/406/32 364/422/58 363/421/57
f 381/406/32 365/423/59 364/422/58
f 381/406/32 366/424/60 365/423/59
f 381/406/32 367/425/61 366/424/60
f 381/406/32 368/426/62 367/425/61
f 381/406/32 369/427/63 368/426/62
f 381/406/32 370/428/64 369/427/63
f 381/406/32 371/429/65 370/428/64
f 381/406/32 372/430/66 371/429/65
f 381/406/32 373/431/67 372/430/66
f 381/406/32 374/432/68 373/431/67
f 381/406/32 375/433/69 374/432/68
f 381/406/32 376/434/70 375/433/69
f 381/406/32 377/435/71 376/434/70
f 381/406/32 378/436/72 377/435/71
f 381/406/32 379/437/73 378/436/72
f 381/406/32 380/438/74 379/437/73
f 381/406/32 349/405/44 380/438/74
f 382/439/42 349/440/44 350/441/43
f 382/439/42 350/441/43 351/442/45
f 382/439/42 351/442/45 352/443/46
f 382/439/42 352/443/46 353/444/47
f 382/439/42 353/444/47 354/413/48
f 382/439/42 354/413/48 355/412/49
f 382/439/42 355/412/49 356/414/50
f 382/439/42 356/414/50 357/415/51
f 382/439/42 357/415/51 358/416/52
f 382/439/42 358/416/52 359/417/53
f 382/439/42 359/417/53 360/418/54
f 382/439/42 360/418/54 361/419/55
f 382/439/42 361/419/55 362/420/56
f 382/439/42 362/420/56 363/421/57
f 382/439/42 363/421/57 364/422/58
f 382/439/42 364/422/58 365/423/59
f 382/439/42 365/423/59 366/424/60
f 382/439/42 366/424/60 367/425/61
f 382/439/42 367/425/61 368/426/62
f 382/439/42 368/426/62 369/427/63
f 382/439/42 369/427/63 370/428/64
f 382/439/42 370/428/64 371/429/65
f 382/439/42 371/429/65 372/430/66
f 382/439/42 372/430/66 373/431/67
f 382/439/42 373/431/67 374/432/68
f 382/439/42 374/432/68 375/445/69
f 382/439/42 375/445/69 376/446/70
f 382/439/42 376/446/70 377/447/71
f 382/439/42 377/447/71 378/448/72
f 382/439/42 378/448/72 379/449/73
f 382/439/42 379/449/73 380/450/74
f 380/450/74 349/440/44 382/439/42
